…
    ## `summarise()` regrouping output by 'edu', 'religion' (override with `.groups` argument)

``` r
edu_religion_marriage
```

    ## # A tibble: 31 x 6
    ## # Groups:   edu, religion [16]
    ##    edu          religion group_marriage     n tot_group   pct
    ##    <chr>        <chr>    <chr>          <int>     <int> <dbl>
    ##  1 고등학교     no       divorce          181      1576  11.5
    ##  2 고등학교     no       marriage        1395      1576  88.5
    ##  3 고등학교     yes      divorce          126      1457   8.6
    ##  4 고등학교     yes      marriage        1331      1457  91.4
    ##  5 대학교       no       divorce           34       754   4.5
    ##  6 대학교       no       marriage         720       754  95.5
    ##  7 대학교       yes      divorce           23       736   3.1
    ##  8 대학교       yes      marriage         713       736  96.9
    ##  9 대학원(박사) no       marriage          13        13 100  
    ## 10 대학원(박사) yes      divorce            1        16   6.2
    ## # ... with 21 more rows
…
